<log4net>
    
    <logger name="testLog.log">
      <level value="DEBUG"/>
    </logger>
    
    <root>
      <level value="WARN" />
      <appender-ref ref="LogFileAppender" />
      <appender-ref ref="ConsoleAppender" />
    </root>
    
    <appender name="LogFileAppender" 
             type="log4net.Appender.FileAppender" >
      <param name="File" value="log-file.txt" />
      <param name="AppendToFile" value="true" />
      <layout type="log4net.Layout.PatternLayout">
        <param name="Header" value="[Header]\r\n"/>
        <param name="Footer" value="[Footer]\r\n"/>
        <param name="ConversionPattern" 
           value="%d [%t] %-5p %c [%x] <%X{auth}> - %m%n"
         />
      </layout>
      <filter type="log4net.Filter.LevelRangeFilter">
        <param name="LevelMin" value="DEBUG" />
        <param name="LevelMax" value="WARN" />
      </filter>
    </appender>
    
    <appender name="ConsoleAppender" 
              type="log4net.Appender.ConsoleAppender" >
      <layout type="log4net.Layout.PatternLayout">
        <param name="ConversionPattern" 
           value="%d [%t] %-5p %c [%x] <%X{auth}> - %m%n" 
        />
      </layout>
    </appender>
    
  </log4net>